…
temp_summary
```

```
## # A tibble: 84 × 13
##    Date       min_temp_d max_temp_d mean_temp_d min_temp_d1_7 max_temp_d1_7
##    <date>          <dbl>      <dbl>       <dbl>         <dbl>         <dbl>
##  1 2023-07-14        8.5       24.5        15.8          11.8          26.4
##  2 2023-07-15       11         25          17.2          12.1          28  
##  3 2023-07-16       11         25          17.5          12.2          29.5
##  4 2023-07-17       14.5       25.5        18.9          12.6          31  
##  5 2023-07-18       13.5       25          18.2          12.4          32.2
##  6 2023-07-19       12.5       25          17.7          11.9          33.7
##  7 2023-07-20       11.5       35          20.5          11.6          35.4
##  8 2023-07-21       11         35.5        20.6          11.6          35.8
##  9 2023-07-22       11.5       35.5        20.7          11.6          36.3
## 10 2023-07-23       14         35.5        21.9          11.6          36.9
## # ℹ 74 more rows
## # ℹ 7 more variables: mean_temp_d1_7 <dbl>, min_temp_d1_14 <dbl>,
## #   max_temp_d1_14 <dbl>, mean_temp_d1_14 <dbl>, min_temp_d7_14 <dbl>,
## #   max_temp_d7_14 <dbl>, mean_temp_d7_14 <dbl>
```
…
moisture_summary
```

```
## # A tibble: 93 × 5
##    Date       mean_moisture_d s_moisture_1_7 s_moisture_1_14 s_moisture_7_14
##    <date>               <dbl>          <dbl>           <dbl>           <dbl>
##  1 2023-07-20          0.0853         0.0714          0.0548         NA     
##  2 2023-07-21          0.0809         0.0669          0.0548         NA     
##  3 2023-07-22          0.0754         0.0622          0.0548         NA     
##  4 2023-07-23          0.0711         0.0577          0.0548         NA     
##  5 2023-07-24          0.0668         0.0529          0.0548         NA     
##  6 2023-07-25          0.0622         0.0479          0.0548         NA     
##  7 2023-07-26          0.0581         0.0430          0.0548         NA     
##  8 2023-07-27          0.0537         0.0381          0.0501          0.0714
##  9 2023-07-28          0.0484         0.0334          0.0456          0.0669
## 10 2023-07-29          0.0436         0.0290          0.0413          0.0622
## # ℹ 83 more rows
```
…
``` r
growth
```

```
## # A tibble: 17,336 × 10
##    survey_date block Genotype pop.mf parent.pop    mf   rep height.cm
##    <date>      <chr> <chr>    <chr>  <chr>      <dbl> <dbl>     <dbl>
##  1 2023-07-03  <NA>  CP2_1_1  CP2_1  CP2            1     1       0.5
##  2 2023-07-03  <NA>  CP2_1_2  CP2_1  CP2            1     2       0.7
##  3 2023-07-03  <NA>  CP2_1_3  CP2_1  CP2            1     3       1.1
##  4 2023-07-03  <NA>  CP2_1_4  CP2_1  CP2            1     4       0.8
##  5 2023-07-03  <NA>  CP2_1_5  CP2_1  CP2            1     5       0.9
##  6 2023-07-03  <NA>  CP2_1_6  CP2_1  CP2            1     6       1  
##  7 2023-07-03  <NA>  CP2_1_7  CP2_1  CP2            1     7       1.5
##  8 2023-07-03  <NA>  CP2_1_8  CP2_1  CP2            1     8       1.1
##  9 2023-07-03  <NA>  CP2_1_9  CP2_1  CP2            1     9       0.5
## 10 2023-07-03  <NA>  CP2_1_10 CP2_1  CP2            1    10       0.7
## # ℹ 17,326 more rows
## # ℹ 2 more variables: long.leaf.cm <dbl>, survey.notes <chr>
```
…
``` r
survival
```

```
## # A tibble: 1,575 × 12
##    block BedLoc bed   bed.row bed.col Genotype   pop.mf  parent.pop    mf   rep
##    <chr> <chr>  <chr>   <dbl> <chr>   <chr>      <chr>   <chr>      <dbl> <dbl>
##  1 A     A_1_A  A           1 A       TM2_6_11   TM2_6   TM2            6    11
##  2 A     A_1_B  A           1 B       LVTR1_7_1  LVTR1_7 LVTR1          7     1
##  3 A     A_2_A  A           2 A       SQ2_6_14   SQ2_6   SQ2            6    14
##  4 A     A_2_B  A           2 B       YO8_8_3    YO8_8   YO8            8     3
##  5 A     A_3_A  A           3 A       CC_2_3     CC_2    CC             2     3
##  6 A     A_3_B  A           3 B       YO11_5_14  YO11_5  YO11           5    14
##  7 A     A_4_A  A           4 A       BH_6_3     BH_6    BH             6     3
##  8 A     A_4_B  A           4 B       DPR_4_8    DPR_4   DPR            4     8
##  9 A     A_5_A  A           5 A       CP2_5_1    CP2_5   CP2            5     1
## 10 A     A_5_B  A           5 B       LVTR1_3_12 LVTR1_3 LVTR1          3    12
## # ℹ 1,565 more rows
## # ℹ 2 more variables: death.date <chr>, survey.notes <chr>
```
…
growth2 
```

```
## # A tibble: 5,894 × 13
##    survey_date block Genotype pop.mf parent.pop    mf   rep height.cm
##    <date>      <chr> <chr>    <chr>  <chr>      <dbl> <dbl>     <dbl>
##  1 2023-07-26  L     BH_1_1   BH_1   BH             1     1       4.7
##  2 2023-08-02  L     BH_1_1   BH_1   BH             1     1       4.8
##  3 2023-08-16  L     BH_1_1   BH_1   BH             1     1       4.9
##  4 2023-08-23  L     BH_1_1   BH_1   BH             1     1       5.7
##  5 2023-08-30  L     BH_1_1   BH_1   BH             1     1       4.9
##  6 2023-09-06  L     BH_1_1   BH_1   BH             1     1       3.6
##  7 2023-09-13  L     BH_1_1   BH_1   BH             1     1       4.4
##  8 2023-09-20  L     BH_1_1   BH_1   BH             1     1       5.1
##  9 2023-10-13  L     BH_1_1   BH_1   BH             1     1       5.6
## 10 2023-07-26  H     BH_1_10  BH_1   BH             1    10       3.1
## # ℹ 5,884 more rows
## # ℹ 5 more variables: height.cm.next <dbl>, elapsed_days <drtn>,
## #   elapsed_weeks <dbl>, week <dbl>, week_char <chr>
```
…
```
## Warning in right_join(., growth): Detected an unexpected many-to-many relationship between `x` and `y`.
## ℹ Row 1 of `x` matches multiple rows in `y`.
## ℹ Row 1362 of `y` matches multiple rows in `x`.
## ℹ If a many-to-many relationship is expected, set `relationship =
##   "many-to-many"` to silence this warning.
```

``` r
# check it
survival2 %>% select(Genotype, death.date, survey_date, surv.next, l.height.cm)
```

```
## # A tibble: 8,070 × 5
##    Genotype death.date survey_date surv.next l.height.cm
##    <chr>    <date>     <date>          <dbl>       <dbl>
##  1 BH_1_1   NA         2023-07-03          1       0.693
##  2 BH_1_1   NA         2023-07-26          1       1.55 
##  3 BH_1_1   NA         2023-08-02          1       1.57 
##  4 BH_1_1   NA         2023-08-16          1       1.59 
##  5 BH_1_1   NA         2023-08-23          1       1.74 
##  6 BH_1_1   NA         2023-08-30          1       1.59 
##  7 BH_1_1   NA         2023-09-06          1       1.28 
##  8 BH_1_1   NA         2023-09-13          1       1.48 
##  9 BH_1_1   NA         2023-09-20          1       1.63 
## 10 BH_1_1   NA         2023-10-13          1       1.72 
## # ℹ 8,060 more rows
```
…
```
##    user  system elapsed 
##   3.061   0.566  17.500
```

``` r
surv.models %>% select(-wflow, -fit) %>% unnest(glance) %>% arrange(BIC)
```

```
## # A tibble: 26 × 8
##    name                nobs sigma logLik   AIC   BIC deviance df.residual
##    <chr>              <int> <dbl>  <dbl> <dbl> <dbl>    <dbl>       <int>
##  1 mc1_cubic           5086     1  -990. 2000. 2066.    1915.        5076
##  2 mc5_mean_temp_1_7   5086     1  -987. 1996. 2068.    1910.        5075
##  3 mc8_max_temp_1_7    5086     1  -988. 1998. 2070.    1911.        5075
##  4 mc10_max_temp_6_13  5086     1  -988. 1999. 2071.    1911.        5075
##  5 mc7_mean_temp_6_13  5086     1  -988. 1999. 2071.    1911.        5075
##  6 mc12_moisture_7_14  5086     1  -989. 2000. 2072.    1912.        5075
##  7 mc13_moisture_1_14  5086     1  -989. 2000. 2072.    1913.        5075
##  8 mc11_moisture_1_7   5086     1  -989. 2001. 2073.    1913.        5075
##  9 mc2_min_temp_1_7    5086     1  -990. 2001. 2073.    1914.        5075
## 10 mc4_min_temp_6_13   5086     1  -990. 2002. 2073.    1914.        5075
## # ℹ 16 more rows
```
…
