…
``` r
growth
```

```
## # A tibble: 17,336 × 10
##    survey_date block Genotype pop.mf parent.pop    mf   rep height.cm
##    <date>      <chr> <chr>    <chr>  <chr>      <dbl> <dbl>     <dbl>
##  1 2023-07-03  <NA>  CP2_1_1  CP2_1  CP2            1     1       0.5
##  2 2023-07-03  <NA>  CP2_1_2  CP2_1  CP2            1     2       0.7
##  3 2023-07-03  <NA>  CP2_1_3  CP2_1  CP2            1     3       1.1
##  4 2023-07-03  <NA>  CP2_1_4  CP2_1  CP2            1     4       0.8
##  5 2023-07-03  <NA>  CP2_1_5  CP2_1  CP2            1     5       0.9
##  6 2023-07-03  <NA>  CP2_1_6  CP2_1  CP2            1     6       1  
##  7 2023-07-03  <NA>  CP2_1_7  CP2_1  CP2            1     7       1.5
##  8 2023-07-03  <NA>  CP2_1_8  CP2_1  CP2            1     8       1.1
##  9 2023-07-03  <NA>  CP2_1_9  CP2_1  CP2            1     9       0.5
## 10 2023-07-03  <NA>  CP2_1_10 CP2_1  CP2            1    10       0.7
## # ℹ 17,326 more rows
## # ℹ 2 more variables: long.leaf.cm <dbl>, survey.notes <chr>
```
…
``` r
survival
```

```
## # A tibble: 1,575 × 12
##    block BedLoc bed   bed.row bed.col Genotype   pop.mf  parent.pop    mf   rep
##    <chr> <chr>  <chr>   <dbl> <chr>   <chr>      <chr>   <chr>      <dbl> <dbl>
##  1 A     A_1_A  A           1 A       TM2_6_11   TM2_6   TM2            6    11
##  2 A     A_1_B  A           1 B       LVTR1_7_1  LVTR1_7 LVTR1          7     1
##  3 A     A_2_A  A           2 A       SQ2_6_14   SQ2_6   SQ2            6    14
##  4 A     A_2_B  A           2 B       YO8_8_3    YO8_8   YO8            8     3
##  5 A     A_3_A  A           3 A       CC_2_3     CC_2    CC             2     3
##  6 A     A_3_B  A           3 B       YO11_5_14  YO11_5  YO11           5    14
##  7 A     A_4_A  A           4 A       BH_6_3     BH_6    BH             6     3
##  8 A     A_4_B  A           4 B       DPR_4_8    DPR_4   DPR            4     8
##  9 A     A_5_A  A           5 A       CP2_5_1    CP2_5   CP2            5     1
## 10 A     A_5_B  A           5 B       LVTR1_3_12 LVTR1_3 LVTR1          3    12
## # ℹ 1,565 more rows
## # ℹ 2 more variables: death.date <chr>, survey.notes <chr>
```
…
growth2 
```

```
## # A tibble: 5,894 × 14
##    survey_date block Genotype pop.mf parent.pop    mf   rep height.cm
##    <date>      <chr> <chr>    <chr>  <chr>      <dbl> <dbl>     <dbl>
##  1 2023-07-26  L     BH_1_1   BH_1   BH             1     1       4.7
##  2 2023-08-02  L     BH_1_1   BH_1   BH             1     1       4.8
##  3 2023-08-16  L     BH_1_1   BH_1   BH             1     1       4.9
##  4 2023-08-23  L     BH_1_1   BH_1   BH             1     1       5.7
##  5 2023-08-30  L     BH_1_1   BH_1   BH             1     1       4.9
##  6 2023-09-06  L     BH_1_1   BH_1   BH             1     1       3.6
##  7 2023-09-13  L     BH_1_1   BH_1   BH             1     1       4.4
##  8 2023-09-20  L     BH_1_1   BH_1   BH             1     1       5.1
##  9 2023-10-13  L     BH_1_1   BH_1   BH             1     1       5.6
## 10 2023-07-26  H     BH_1_10  BH_1   BH             1    10       3.1
## # ℹ 5,884 more rows
## # ℹ 6 more variables: l.height.cm <dbl>, l.height.cm.next <dbl>,
## #   elapsed_days <drtn>, elapsed_weeks <dbl>, week <dbl>, week_char <chr>
```
…
```
## Warning in right_join(., growth): Detected an unexpected many-to-many relationship between `x` and `y`.
## ℹ Row 1 of `x` matches multiple rows in `y`.
## ℹ Row 1362 of `y` matches multiple rows in `x`.
## ℹ If a many-to-many relationship is expected, set `relationship =
##   "many-to-many"` to silence this warning.
```

``` r
# check it
survival2 %>% select(Genotype, death.date, survey_date, surv.next, l.height.cm)
```

```
## # A tibble: 8,070 × 5
##    Genotype death.date survey_date surv.next l.height.cm
##    <chr>    <date>     <date>          <dbl>       <dbl>
##  1 BH_1_1   NA         2023-07-03          1       0.693
##  2 BH_1_1   NA         2023-07-26          1       1.55 
##  3 BH_1_1   NA         2023-08-02          1       1.57 
##  4 BH_1_1   NA         2023-08-16          1       1.59 
##  5 BH_1_1   NA         2023-08-23          1       1.74 
##  6 BH_1_1   NA         2023-08-30          1       1.59 
##  7 BH_1_1   NA         2023-09-06          1       1.28 
##  8 BH_1_1   NA         2023-09-13          1       1.48 
##  9 BH_1_1   NA         2023-09-20          1       1.63 
## 10 BH_1_1   NA         2023-10-13          1       1.72 
## # ℹ 8,060 more rows
```
…
