…
Create a tibble to hold the matrices from each pop and fill it

``` r
IPM.tibble <- tibble(parent.pop=unique(growth2$parent.pop)) %>%
  mutate(G = map(parent.pop, makeG, y, h),
         P = map2(parent.pop, G, makeP, y))

IPM.tibble
```

```
## # A tibble: 22 × 3
##    parent.pop G                 P                
##    <chr>      <list>            <list>           
##  1 BH         <dbl [100 × 100]> <dbl [100 × 100]>
##  2 CC         <dbl [100 × 100]> <dbl [100 × 100]>
##  3 CP2        <dbl [100 × 100]> <dbl [100 × 100]>
##  4 CP3        <dbl [100 × 100]> <dbl [100 × 100]>
##  5 DPR        <dbl [100 × 100]> <dbl [100 × 100]>
##  6 FR         <dbl [100 × 100]> <dbl [100 × 100]>
##  7 IH         <dbl [100 × 100]> <dbl [100 × 100]>
##  8 LV1        <dbl [100 × 100]> <dbl [100 × 100]>
##  9 LV3        <dbl [100 × 100]> <dbl [100 × 100]>
## 10 LVTR1      <dbl [100 × 100]> <dbl [100 × 100]>
## # ℹ 12 more rows
```
…
