…
``` r
fruit
```

```
## # A tibble: 25 × 16
##    block BedLoc bed   `bed-row` `bed-col` Genotype pop      mf   rep flowers
##    <chr> <chr>  <chr>     <dbl> <chr>     <chr>    <chr> <dbl> <dbl>   <dbl>
##  1 A     A_1_A  A             1 A         TM2_6_11 TM2       6    11       0
##  2 B     A_43_A A            43 A         TM2_6_1  TM2       6     1       0
##  3 B     A_56_B A            56 B         TM2_2_12 TM2       2    12       0
##  4 A     A_23_D A            23 D         TM2_3_3  TM2       3     3       1
##  5 B     A_44_C A            44 C         TM2_6_3  TM2       6     3       1
##  6 C     B_37_A B            37 A         TM2_1_16 TM2       1    16       5
##  7 C     B_36_D B            36 D         TM2_1_4  TM2       1     4       2
##  8 C     B_43_D B            43 D         TM2_7_10 TM2       7    10      20
##  9 F     C_54_B C            54 B         TM2_1_14 TM2       1    14       2
## 10 E     C_32_D C            32 D         TM2_7_12 TM2       7    12       3
## # ℹ 15 more rows
## # ℹ 6 more variables: fruits <dbl>, FrFlN <dbl>, elevation.group <chr>,
## #   elev_m <dbl>, Lat <dbl>, Long <dbl>
```
…
``` r
pheno.dates
```

```
## # A tibble: 1,826 × 13
##    Genotype   block bed   bed.row bed.col pop   mf    rep   bud.date flower.date
##    <chr>      <chr> <chr>   <dbl> <chr>   <chr> <chr> <chr> <chr>    <chr>      
##  1 TM2_6_11   A     A           1 A       TM2   6     11    8/23/23  9/13/23    
##  2 LVTR1_7_1  A     A           1 B       LVTR1 7     1     <NA>     <NA>       
##  3 SQ2_6_14   A     A           2 A       SQ2   6     14    <NA>     <NA>       
##  4 YO8_8_3    A     A           2 B       YO8   8     3     <NA>     <NA>       
##  5 CC_2_3     A     A           3 A       CC    2     3     <NA>     <NA>       
##  6 YO11_5_14  A     A           3 B       YO11  5     14    <NA>     <NA>       
##  7 BH_6_3     A     A           4 A       BH    6     3     <NA>     <NA>       
##  8 DPR_4_8    A     A           4 B       DPR   4     8     <NA>     <NA>       
##  9 CP2_5_1    A     A           5 A       CP2   5     1     <NA>     <NA>       
## 10 LVTR1_3_12 A     A           5 B       LVTR1 3     12    <NA>     <NA>       
## # ℹ 1,816 more rows
## # ℹ 3 more variables: fruit.date <chr>, last.flower.date <chr>,
## #   last.fruit.date <lgl>
```
…
``` r
growth
```

```
## # A tibble: 17,336 × 10
##    survey_date block Genotype pop.mf parent.pop    mf   rep height.cm
##    <date>      <chr> <chr>    <chr>  <chr>      <dbl> <dbl>     <dbl>
##  1 2023-07-03  <NA>  CP2_1_1  CP2_1  CP2            1     1       0.5
##  2 2023-07-03  <NA>  CP2_1_2  CP2_1  CP2            1     2       0.7
##  3 2023-07-03  <NA>  CP2_1_3  CP2_1  CP2            1     3       1.1
##  4 2023-07-03  <NA>  CP2_1_4  CP2_1  CP2            1     4       0.8
##  5 2023-07-03  <NA>  CP2_1_5  CP2_1  CP2            1     5       0.9
##  6 2023-07-03  <NA>  CP2_1_6  CP2_1  CP2            1     6       1  
##  7 2023-07-03  <NA>  CP2_1_7  CP2_1  CP2            1     7       1.5
##  8 2023-07-03  <NA>  CP2_1_8  CP2_1  CP2            1     8       1.1
##  9 2023-07-03  <NA>  CP2_1_9  CP2_1  CP2            1     9       0.5
## 10 2023-07-03  <NA>  CP2_1_10 CP2_1  CP2            1    10       0.7
## # ℹ 17,326 more rows
## # ℹ 2 more variables: long.leaf.cm <dbl>, survey.notes <chr>
```
…
growth2 
```

```
## # A tibble: 5,894 × 14
##    survey_date block Genotype pop.mf parent.pop    mf   rep height.cm
##    <date>      <chr> <chr>    <chr>  <chr>      <dbl> <dbl>     <dbl>
##  1 2023-07-26  L     BH_1_1   BH_1   BH             1     1       4.7
##  2 2023-08-02  L     BH_1_1   BH_1   BH             1     1       4.8
##  3 2023-08-16  L     BH_1_1   BH_1   BH             1     1       4.9
##  4 2023-08-23  L     BH_1_1   BH_1   BH             1     1       5.7
##  5 2023-08-30  L     BH_1_1   BH_1   BH             1     1       4.9
##  6 2023-09-06  L     BH_1_1   BH_1   BH             1     1       3.6
##  7 2023-09-13  L     BH_1_1   BH_1   BH             1     1       4.4
##  8 2023-09-20  L     BH_1_1   BH_1   BH             1     1       5.1
##  9 2023-10-13  L     BH_1_1   BH_1   BH             1     1       5.6
## 10 2023-07-26  H     BH_1_10  BH_1   BH             1    10       3.1
## # ℹ 5,884 more rows
## # ℹ 6 more variables: l.height.cm <dbl>, l.height.cm.next <dbl>,
## #   elapsed_days <drtn>, elapsed_weeks <dbl>, week <dbl>, week_char <chr>
```
…
